<?xml version="1.0" encoding="utf-8"?>
<!-- Generator: Adobe Illustrator 19.0.0, SVG Export Plug-In . SVG Version: 6.00 Build 0)  -->
<svg version="1.1" id="Calque_1" xmlns="http://www.w3.org/2000/svg"  x="0px" y="0px"
	 viewBox="0 0 303 208.7" style="enable-background:new 0 0 303 208.7;" xml:space="preserve">
<path id="XMLID_7_" style="fill:#F4F3EF;" d="M61.6,95c0,17.8,14.5,32.4,32.4,32.4c16.4,0,30-12.2,32.1-28.1h11.7
	c1.5,2.9,4.6,4.8,8,4.8c5,0,9.1-4.1,9.1-9.1c0-0.9-0.1-1.8-0.4-2.6l34.7-34.7l2.8,8.3c-10.7,5.3-18.1,16.3-18.1,29.1
	c0,17.8,14.5,32.4,32.4,32.4s32.4-14.5,32.4-32.4c0-17.8-14.5-32.4-32.4-32.4c-2.1,0-4.1,0.2-6.1,0.6L180.2,3c-0.6-1.8-2.2-3-4.1-3
	l-10.8,0c-2.4,0-4.3,1.9-4.3,4.3s1.9,4.3,4.3,4.3h7.7l13.3,39.9l-37.8,37.8c-0.3-0.1-0.7-0.2-1.1-0.2l-19.3-58h4.8
	c2.4,0,4.3-1.9,4.3-4.3c0-2.4-1.9-4.3-4.3-4.3h-19.4c-2.4,0-4.3,1.9-4.3,4.3c0,2.4,1.9,4.3,4.3,4.3h5.5l9,26.9l-14.3,14.3
	c-5.4-4.2-12.2-6.6-19.6-6.6C76.1,62.7,61.6,77.2,61.6,95z M194.8,74.3l7.4,22.1c0.6,1.8,2.3,3,4.1,3c0.5,0,0.9-0.1,1.4-0.2
	c2.3-0.8,3.5-3.2,2.7-5.5L203,71.5c1.1-0.1,2.2-0.2,3.3-0.2c13.1,0,23.7,10.6,23.7,23.7c0,13.1-10.6,23.7-23.7,23.7
	c-13.1,0-23.7-10.6-23.7-23.7C182.6,86.1,187.5,78.3,194.8,74.3z M113.5,81.6c1.9,2.7,3.2,5.8,3.8,9.1h-12.9L113.5,81.6z
	 M137.8,90.7h-11.7c-0.8-5.7-3-10.9-6.3-15.3L131,64.1l8.2,24.6C138.6,89.3,138.2,90,137.8,90.7z M70.3,95
	c0-13.1,10.6-23.7,23.7-23.7c5,0,9.6,1.5,13.4,4.2L90.9,92c-1.2,1.2-1.6,3.1-0.9,4.7c0.7,1.6,2.2,2.7,4,2.7h23.3
	c-2,11-11.7,19.4-23.3,19.4C80.9,118.8,70.2,108.1,70.3,95z"/>
<g id="XMLID_8_">
	<path id="XMLID_9_" style="fill:#F4F3EF;" d="M26.2,162.5c2.1,1.4,3.8,3.2,5,5.6c1.3,2.3,1.9,4.9,1.9,7.7c0,2.7-0.6,5.3-1.9,7.6
		c-1.3,2.4-2.9,4.2-5,5.6c-2.1,1.4-4.3,2.1-6.6,2.1H7.8v12.9c0,1.2-0.4,2.2-1.1,3C6,207.6,5.1,208,3.9,208c-1.1,0-2.1-0.4-2.8-1.2
		C0.4,206,0,205,0,203.8v-39.3c0-1.2,0.4-2.2,1.2-3c0.8-0.8,1.8-1.2,3-1.2h15.5C22,160.4,24.2,161.1,26.2,162.5z M22.2,182.2
		c0.8-0.7,1.5-1.7,2-2.8c0.5-1.2,0.8-2.4,0.8-3.6c0-1.3-0.3-2.5-0.8-3.6c-0.5-1.2-1.2-2.1-2-2.8s-1.7-1.1-2.5-1.1H7.8v15h11.8
		C20.5,183.2,21.4,182.9,22.2,182.2z"/>
	<path id="XMLID_12_" style="fill:#F4F3EF;" d="M71,191.6c-0.8,0.7-1.8,1-2.9,1H45.7c0.5,2.7,1.8,4.8,3.7,6.3
		c1.9,1.5,4.1,2.3,6.6,2.3c1.9,0,3.3-0.2,4.4-0.5c1-0.3,1.9-0.7,2.5-1.1c0.6-0.4,1-0.6,1.3-0.8c0.8-0.4,1.6-0.6,2.3-0.6
		c1,0,1.8,0.3,2.4,1c0.7,0.7,1,1.5,1,2.4c0,1.2-0.6,2.3-1.9,3.3c-1.3,1-3,1.9-5.1,2.7s-4.3,1.1-6.5,1.1c-3.8,0-7.1-0.8-10-2.4
		c-2.8-1.6-5-3.8-6.6-6.6c-1.5-2.8-2.3-5.9-2.3-9.4c0-3.9,0.8-7.3,2.4-10.3c1.6-2.9,3.8-5.2,6.5-6.8c2.7-1.6,5.5-2.3,8.6-2.3
		c3,0,5.8,0.8,8.5,2.4c2.7,1.6,4.8,3.8,6.4,6.6c1.6,2.8,2.4,5.8,2.4,9C72.2,190,71.8,190.9,71,191.6z M45.8,185.8h17.8v-0.5
		c-0.2-1.9-1.1-3.5-2.8-4.9c-1.7-1.4-3.6-2-5.7-2C49.8,178.4,46.7,180.9,45.8,185.8z"/>
	<path id="XMLID_15_" style="fill:#F4F3EF;" d="M98.4,201.2c0.5,0.6,0.8,1.4,0.8,2.4c0,1.2-0.7,2.3-2,3.1s-2.8,1.3-4.5,1.3
		c-2.8,0-5.2-0.6-7.1-1.8s-2.9-3.8-2.9-7.7v-18.8h-3.1c-1.1,0-2-0.4-2.7-1.1c-0.7-0.7-1.1-1.6-1.1-2.7c0-1,0.4-1.9,1.1-2.6
		c0.7-0.7,1.6-1.1,2.7-1.1h3.1v-4.4c0-1.2,0.4-2.2,1.2-3c0.8-0.8,1.8-1.2,3-1.2c1.1,0,2.1,0.4,2.9,1.2c0.8,0.8,1.2,1.8,1.2,3v4.4
		h4.8c1.1,0,2,0.4,2.7,1.1c0.7,0.7,1.1,1.6,1.1,2.7c0,1-0.4,1.9-1.1,2.6c-0.7,0.7-1.6,1.1-2.7,1.1h-4.8v18.4c0,1,0.2,1.6,0.7,2.1
		c0.5,0.4,1.2,0.6,2,0.6c0.4,0,0.9-0.1,1.5-0.3c0.5-0.2,1.1-0.3,1.6-0.3C97.3,200.3,97.8,200.6,98.4,201.2z"/>
	<path id="XMLID_17_" style="fill:#F4F3EF;" d="M107.2,166.4c-0.6-0.5-1-1.4-1-2.7v-1.3c0-1.3,0.3-2.2,1-2.7
		c0.7-0.5,1.8-0.7,3.3-0.7c1.6,0,2.7,0.2,3.3,0.7c0.6,0.5,1,1.4,1,2.7v1.3c0,1.3-0.3,2.2-1,2.7c-0.7,0.5-1.8,0.7-3.4,0.7
		C108.9,167.2,107.8,166.9,107.2,166.4z M113.4,206.8c-0.8,0.8-1.7,1.2-2.9,1.2c-1.2,0-2.2-0.4-2.9-1.2c-0.8-0.8-1.2-1.8-1.2-3
		v-28.1c0-1.2,0.4-2.2,1.2-3c0.8-0.8,1.7-1.2,2.9-1.2c1.2,0,2.2,0.4,2.9,1.2c0.8,0.8,1.2,1.8,1.2,3v28.1
		C114.6,205,114.2,206,113.4,206.8z"/>
	<path id="XMLID_20_" style="fill:#F4F3EF;" d="M148.1,172.7c2.4,1.2,3.5,2.8,3.5,4.8c0,1-0.3,1.9-0.9,2.6c-0.6,0.7-1.4,1.1-2.3,1.1
		c-0.7,0-1.3-0.1-1.8-0.3c-0.5-0.2-0.9-0.5-1.3-0.8c-0.4-0.3-0.9-0.6-1.3-0.9c-0.5-0.2-1.1-0.4-2-0.6c-0.9-0.2-1.6-0.3-2.1-0.3
		c-3.4,0-6.1,1.1-8,3.2s-2.9,4.9-2.9,8.3c0,3.3,1,6,2.9,8.1c1.9,2.2,4.4,3.2,7.5,3.2c2.2,0,3.9-0.3,5-0.8c0.3-0.1,0.6-0.4,1.1-0.7
		c0.5-0.3,0.9-0.6,1.3-0.8c0.4-0.2,0.9-0.3,1.5-0.3c1.1,0,2,0.4,2.7,1.1c0.7,0.7,1,1.7,1,2.8c0,1.1-0.6,2.1-1.9,3.1
		c-1.3,1-2.9,1.7-5,2.3c-2.1,0.6-4.3,0.8-6.7,0.8c-3.5,0-6.6-0.8-9.2-2.4c-2.7-1.6-4.7-3.9-6.2-6.8c-1.5-2.9-2.2-6.1-2.2-9.6
		c0-3.7,0.8-6.9,2.3-9.8c1.5-2.9,3.6-5.1,6.4-6.7c2.7-1.6,5.8-2.4,9.2-2.4C142.6,170.9,145.7,171.5,148.1,172.7z"/>
	<path id="XMLID_22_" style="fill:#F4F3EF;" d="M165.6,206.8c-0.8,0.8-1.8,1.2-3,1.2c-1.1,0-2.1-0.4-2.9-1.2c-0.8-0.8-1.2-1.8-1.2-3
		v-42c0-1.2,0.4-2.2,1.2-3c0.8-0.8,1.8-1.2,3-1.2c1.1,0,2.1,0.4,2.9,1.2c0.8,0.8,1.2,1.8,1.2,3v42C166.8,205,166.4,206,165.6,206.8z
		"/>
	<path id="XMLID_24_" style="fill:#F4F3EF;" d="M207,191.6c-0.8,0.7-1.8,1-2.9,1h-22.4c0.5,2.7,1.8,4.8,3.7,6.3
		c1.9,1.5,4.1,2.3,6.6,2.3c1.9,0,3.3-0.2,4.4-0.5c1-0.3,1.9-0.7,2.5-1.1c0.6-0.4,1-0.6,1.3-0.8c0.8-0.4,1.6-0.6,2.3-0.6
		c1,0,1.8,0.3,2.4,1c0.7,0.7,1,1.5,1,2.4c0,1.2-0.6,2.3-1.9,3.3c-1.3,1-3,1.9-5.1,2.7s-4.3,1.1-6.5,1.1c-3.8,0-7.1-0.8-10-2.4
		c-2.8-1.6-5-3.8-6.6-6.6c-1.5-2.8-2.3-5.9-2.3-9.4c0-3.9,0.8-7.3,2.4-10.3c1.6-2.9,3.8-5.2,6.5-6.8c2.7-1.6,5.5-2.3,8.6-2.3
		c3,0,5.8,0.8,8.5,2.4c2.7,1.6,4.8,3.8,6.4,6.6c1.6,2.8,2.4,5.8,2.4,9C208.2,190,207.8,190.9,207,191.6z M181.8,185.8h17.8v-0.5
		c-0.2-1.9-1.1-3.5-2.8-4.9c-1.7-1.4-3.6-2-5.7-2C185.8,178.4,182.7,180.9,181.8,185.8z"/>
	<path id="XMLID_27_" style="fill:#F4F3EF;" d="M234.4,201.2c0.5,0.6,0.8,1.4,0.8,2.4c0,1.2-0.7,2.3-2,3.1s-2.8,1.3-4.5,1.3
		c-2.8,0-5.2-0.6-7.1-1.8s-2.9-3.8-2.9-7.7v-18.8h-3.1c-1.1,0-2-0.4-2.7-1.1c-0.7-0.7-1.1-1.6-1.1-2.7c0-1,0.4-1.9,1.1-2.6
		c0.7-0.7,1.6-1.1,2.7-1.1h3.1v-4.4c0-1.2,0.4-2.2,1.2-3c0.8-0.8,1.8-1.2,3-1.2c1.1,0,2.1,0.4,2.9,1.2c0.8,0.8,1.2,1.8,1.2,3v4.4
		h4.8c1.1,0,2,0.4,2.7,1.1c0.7,0.7,1.1,1.6,1.1,2.7c0,1-0.4,1.9-1.1,2.6c-0.7,0.7-1.6,1.1-2.7,1.1h-4.8v18.4c0,1,0.2,1.6,0.7,2.1
		c0.5,0.4,1.2,0.6,2,0.6c0.4,0,0.9-0.1,1.5-0.3c0.5-0.2,1.1-0.3,1.6-0.3C233.3,200.3,233.8,200.6,234.4,201.2z"/>
	<path id="XMLID_29_" style="fill:#F4F3EF;" d="M262.2,201.2c0.5,0.6,0.8,1.4,0.8,2.4c0,1.2-0.7,2.3-2,3.1s-2.8,1.3-4.5,1.3
		c-2.8,0-5.2-0.6-7.1-1.8s-2.9-3.8-2.9-7.7v-18.8h-3.1c-1.1,0-2-0.4-2.7-1.1c-0.7-0.7-1.1-1.6-1.1-2.7c0-1,0.4-1.9,1.1-2.6
		c0.7-0.7,1.6-1.1,2.7-1.1h3.1v-4.4c0-1.2,0.4-2.2,1.2-3c0.8-0.8,1.8-1.2,3-1.2c1.1,0,2.1,0.4,2.9,1.2c0.8,0.8,1.2,1.8,1.2,3v4.4
		h4.8c1.1,0,2,0.4,2.7,1.1c0.7,0.7,1.1,1.6,1.1,2.7c0,1-0.4,1.9-1.1,2.6c-0.7,0.7-1.6,1.1-2.7,1.1h-4.8v18.4c0,1,0.2,1.6,0.7,2.1
		c0.5,0.4,1.2,0.6,2,0.6c0.4,0,0.9-0.1,1.5-0.3c0.5-0.2,1.1-0.3,1.6-0.3C261.1,200.3,261.7,200.6,262.2,201.2z"/>
	<path id="XMLID_31_" style="fill:#F4F3EF;" d="M301.7,191.6c-0.8,0.7-1.8,1-2.9,1h-22.4c0.5,2.7,1.8,4.8,3.7,6.3
		c1.9,1.5,4.1,2.3,6.6,2.3c1.9,0,3.3-0.2,4.4-0.5c1-0.3,1.9-0.7,2.5-1.1c0.6-0.4,1-0.6,1.3-0.8c0.8-0.4,1.6-0.6,2.3-0.6
		c1,0,1.8,0.3,2.4,1c0.7,0.7,1,1.5,1,2.4c0,1.2-0.6,2.3-1.9,3.3c-1.3,1-3,1.9-5.1,2.7s-4.3,1.1-6.5,1.1c-3.8,0-7.1-0.8-10-2.4
		c-2.8-1.6-5-3.8-6.6-6.6c-1.5-2.8-2.3-5.9-2.3-9.4c0-3.9,0.8-7.3,2.4-10.3c1.6-2.9,3.8-5.2,6.5-6.8c2.7-1.6,5.5-2.3,8.6-2.3
		c3,0,5.8,0.8,8.5,2.4c2.7,1.6,4.8,3.8,6.4,6.6c1.6,2.8,2.4,5.8,2.4,9C303,190,302.5,190.9,301.7,191.6z M276.5,185.8h17.8v-0.5
		c-0.2-1.9-1.1-3.5-2.8-4.9c-1.7-1.4-3.6-2-5.7-2C280.5,178.4,277.4,180.9,276.5,185.8z"/>
</g>
</svg>
